\relax 
\providecommand*\new@tpo@label[2]{}
\babel@aux{english}{}
\newlabel{bg}{{}{1}}
\@writefile{lof}{\contentsline {figure}{\numberline {1.1}{\ignorespaces Figure showing the initial classification of the iris data. }}{7}}
\newlabel{fig:iris}{{1.1}{7}}
\@writefile{lof}{\contentsline {figure}{\numberline {1.2}{\ignorespaces Figure showing the k-means classification of the iris data. }}{8}}
\newlabel{fig:kmns1}{{1.2}{8}}
\newlabel{k-meat}{{1}{8}}
\@writefile{lot}{\contentsline {table}{\numberline {1.1}{\ignorespaces k-means clustering results}}{8}}
\@writefile{lof}{\contentsline {figure}{\numberline {1.3}{\ignorespaces Figure showing the k-means coherence at different iterations. }}{9}}
\newlabel{fig:coh1}{{1.3}{9}}
\@writefile{lot}{\contentsline {table}{\numberline {1.2}{\ignorespaces k-medoid clustering results}}{10}}
\newlabel{kmedt}{{1.2}{10}}
\@writefile{lof}{\contentsline {figure}{\numberline {1.4}{\ignorespaces Figure showing the k-medoid classification of the iris data. }}{10}}
\newlabel{fig:kmd1}{{1.4}{10}}
\@writefile{lof}{\contentsline {figure}{\numberline {1.5}{\ignorespaces Figure showing the k-medoid coherence of the iris data after different iterations. }}{11}}
\newlabel{fig:kmedco}{{1.5}{11}}
\@writefile{lof}{\contentsline {figure}{\numberline {2.1}{\ignorespaces Figure showing the k-medoid coherence at different iterations for biopsy data. }}{12}}
\newlabel{fig:coh13}{{2.1}{12}}
\@writefile{lot}{\contentsline {table}{\numberline {2.1}{\ignorespaces Clustering results of k-medoid on biopsy dataset.}}{12}}
\newlabel{biot}{{2.1}{12}}
\@writefile{lot}{\contentsline {table}{\numberline {3.1}{\ignorespaces Result of the k-medoid clustering of Congressional Vote. }}{14}}
\newlabel{congt}{{3.1}{14}}
\@writefile{lof}{\contentsline {figure}{\numberline {3.1}{\ignorespaces Figure showing the k-medoid coherence at different iterations for Congressional vote data. }}{15}}
\newlabel{fig:coh31}{{3.1}{15}}
\@writefile{toc}{\contentsline {section}{\numberline {4}Appendix}{16}}
