\relax 
\providecommand*\new@tpo@label[2]{}
\babel@aux{english}{}
\newlabel{bg}{{}{1}}
\@writefile{lof}{\contentsline {figure}{\numberline {1.1}{\ignorespaces Figure showing the success frequency of the handwritten data by PCA classifier. }}{2}}
\newlabel{fig:pca}{{1.1}{2}}
\@writefile{lof}{\contentsline {figure}{\numberline {2.1}{\ignorespaces Figure showing the number of successful prediction at different k values in knn algorithm. }}{3}}
\newlabel{fig:knn_pr2}{{2.1}{3}}
\@writefile{toc}{\contentsline {section}{\numberline {4}Appendix}{6}}
