\relax 
\providecommand*\new@tpo@label[2]{}
\babel@aux{english}{}
\newlabel{bg}{{}{1}}
\@writefile{lof}{\contentsline {figure}{\numberline {1.1}{\ignorespaces Figure showing the PCA plot of principal component 1 and principal component 2, when first 4 characters are removed. }}{5}}
\newlabel{fig:pca1}{{1.1}{5}}
\@writefile{lof}{\contentsline {figure}{\numberline {1.2}{\ignorespaces Figure showing the PCA plot of principal component 1 and principal component 2, when first 8 characters are removed. }}{6}}
\newlabel{fig:pca1}{{1.2}{6}}
\@writefile{lof}{\contentsline {figure}{\numberline {2.1}{\ignorespaces Figure showing the PCA plot of principal component 1 and principal component 2. }}{7}}
\newlabel{fig:pca1}{{2.1}{7}}
\@writefile{lof}{\contentsline {figure}{\numberline {3.1}{\ignorespaces Figure showing the NMF clustering on the top of PCA plot of principal component 1 and principal component 2 and when NMF cluster = 6. }}{8}}
\newlabel{fig:nmf1}{{3.1}{8}}
\@writefile{lof}{\contentsline {figure}{\numberline {3.2}{\ignorespaces Figure showing the NMF clustering on the top of PCA plot of principal component 1 and principal component 2 and when NMF cluster = 7}}{9}}
\newlabel{fig:nmf2}{{3.2}{9}}
\@writefile{lof}{\contentsline {figure}{\numberline {4.1}{\ignorespaces Figure showing the values of cosine(angle) between cluster1 and other clusters}}{10}}
\newlabel{fig:med}{{4.1}{10}}
