\relax 
\providecommand*\new@tpo@label[2]{}
\babel@aux{english}{}
\newlabel{bg}{{}{1}}
\@writefile{lof}{\contentsline {figure}{\numberline {1.1}{\ignorespaces Principal component 1 vs Principal component 2 }}{2}}
\newlabel{fig:11}{{1.1}{2}}
\@writefile{lof}{\contentsline {figure}{\numberline {1.2}{\ignorespaces Principal component 1 vs Principal component 3}}{3}}
\newlabel{fig:12}{{1.2}{3}}
\@writefile{lof}{\contentsline {figure}{\numberline {1.3}{\ignorespaces Principal component 2 vs Principal component 3}}{3}}
\newlabel{fig:13}{{1.3}{3}}
\@writefile{lof}{\contentsline {figure}{\numberline {1.4}{\ignorespaces projection on PC1 vs PC2 vs PC3 }}{4}}
\newlabel{fig:14}{{1.4}{4}}
\@writefile{lof}{\contentsline {figure}{\numberline {1.5}{\ignorespaces Plot on LDA principal direction 1 vs principal direction 2 }}{6}}
\newlabel{fig:21}{{1.5}{6}}
\@writefile{lof}{\contentsline {figure}{\numberline {1.6}{\ignorespaces plot of feature vectors for different value of k}}{7}}
\newlabel{fig:22}{{1.6}{7}}
\@writefile{lof}{\contentsline {figure}{\numberline {1.7}{\ignorespaces Plot of zero from actual data }}{8}}
\newlabel{fig:23}{{1.7}{8}}
\@writefile{lof}{\contentsline {figure}{\numberline {1.8}{\ignorespaces Coefficient Vectors }}{8}}
\newlabel{fig:24}{{1.8}{8}}
